<?xml version="1.0" encoding="utf-8"?>
<!-- Generator: Adobe Illustrator 19.2.0, SVG Export Plug-In . SVG Version: 6.00 Build 0)  -->
<svg version="1.1" id="Layer_1" xmlns="http://www.w3.org/2000/svg" xmlns:xlink="http://www.w3.org/1999/xlink" x="0px" y="0px"
	 width="542px" height="851px" viewBox="0 0 542 851" enable-background="new 0 0 542 851" xml:space="preserve">
<g>
	<polygon fill="#E6E7E8" stroke="#000000" stroke-miterlimit="10" points="52.8,22.1 52.8,836.6 76.1,836.6 76.1,51.5 464.5,51.5 
		464.5,836.6 487.8,836.6 487.8,22.1 	"/>
	<rect x="76.1" y="51.3" fill="#E6E7E8" stroke="#000000" stroke-miterlimit="10" width="388.4" height="779.1"/>
	<rect x="133.8" y="118.1" fill="#E6E7E8" stroke="#000000" stroke-miterlimit="10" width="273" height="498"/>
	<rect x="133.8" y="682.6" fill="#E6E7E8" stroke="#000000" stroke-miterlimit="10" width="273" height="110.5"/>
	<rect x="76.1" y="51.5" fill="#414042" width="388.5" height="5.8"/>
	<rect x="456" y="57.3" fill="#414042" width="8.7" height="773"/>
	<rect x="76.1" y="57.3" fill="#414042" width="8.7" height="773"/>
	<rect x="133.8" y="118.1" fill="#414042" width="273" height="3.9"/>
	
		<rect x="156.9" y="366.1" transform="matrix(2.470652e-011 -1 1 2.470652e-011 36.7847 772.9284)" fill="#414042" width="496" height="3.9"/>
	
		<rect x="-112.2" y="367.4" transform="matrix(2.470652e-011 -1 1 2.470652e-011 -233.546 505.1352)" fill="#414042" width="496" height="3.9"/>
	<rect x="133.9" y="789.1" fill="#414042" width="273" height="3.9"/>
	
		<rect x="350.7" y="734.9" transform="matrix(1.129151e-010 -1 1 1.129151e-010 -331.9127 1141.7808)" fill="#414042" width="108.5" height="3.9"/>
	
		<rect x="81.5" y="734.9" transform="matrix(1.129151e-010 -1 1 1.129151e-010 -601.0521 872.6413)" fill="#414042" width="108.5" height="3.9"/>
	<rect x="150.1" y="136.1" fill="#F1F2F2" width="241.7" height="3.9"/>
	<rect x="149.5" y="695.1" fill="#F1F2F2" width="241.7" height="3.9"/>
	
		<rect x="157.6" y="368.4" transform="matrix(2.336626e-011 -1 1 2.336626e-011 19.5355 760.179)" fill="#F1F2F2" width="464.5" height="3.9"/>
	
		<rect x="-80.2" y="368.4" transform="matrix(2.336626e-011 -1 1 2.336626e-011 -218.2735 522.37)" fill="#F1F2F2" width="464.5" height="3.9"/>
	<rect x="150.1" y="136.1" fill="none" stroke="#000000" stroke-miterlimit="10" width="241.7" height="466.5"/>
	<rect x="387.9" y="695.1" fill="#F1F2F2" width="3.9" height="85.4"/>
	<rect x="150.1" y="695.1" fill="#F1F2F2" width="3.9" height="85.4"/>
	<rect x="150.1" y="695.1" fill="none" stroke="#000000" stroke-miterlimit="10" width="241.7" height="85.4"/>
	<g>
		<circle fill="#414042" cx="426.5" cy="444.3" r="13.4"/>
		<path fill="#414042" d="M423,438.5c-9.5-1.7-17.6-2.7-23.8-3.4c-19.5-2.1-28.3-1.2-33.2,3.4c-0.9,0.8-3.6,3.4-3,5.7
			c0.6,2.2,3.9,3,4.7,3.2c4.9,1.2,8.4-1.4,13.2-3.2c6.3-2.3,11.6-1.8,20.4-1.1c4.7,0.4,11.2,1.5,18.7,4.3L423,438.5z"/>
	</g>
</g>
<g>
	
		<rect x="22" y="194" transform="matrix(0.9974 -7.197777e-002 7.197777e-002 0.9974 -16.1026 20.1476)" fill="#3C2415" stroke="#000000" stroke-width="2" stroke-miterlimit="10" width="499" height="79"/>
	<path fill="none" stroke="#000000" stroke-miterlimit="10" d="M21.8,239.2c37.5-1.6,67.7-4,88.2-5.7c31.3-2.7,35.3-3.9,54-4.5
		c37.4-1.3,44.1,2.4,75,0c27.2-2.1,23.7-5,55-8c37-3.5,38.7,1,75-3c26.1-2.8,54-8,54-8c19.2-3.6,24.3-5.3,37.3-6
		c12.4-0.7,19.3,0.2,35.7-1c9.8-0.7,17.9-1.8,23.3-2.7"/>
	<path fill="none" stroke="#000000" stroke-miterlimit="10" d="M23.9,268.4c13.5-4.2,25.3-6.3,34.1-7.4c4.8-0.6,26.1-3.1,53,0
		c12.8,1.5,21.2,3.5,32,0c4.2-1.4,15.8-5.9,16-6l0,0l0,0c7.8-2,19.6-4.5,34-6c22.5-3.3,25.9,0.7,54,0c32.4-0.8,32-6.1,69-7
		c1.1,0,14.1,0,40,0c36.5,0,36.3,0,37,0c31-1.8,38-8.2,67.3-8.5c0,0,0,0,19.7,0c10,0,20,0,30,0c13.3,0-1.7,0,11.6,0"/>
</g>
<g>
	
		<rect x="21.5" y="503.6" transform="matrix(0.9995 3.250929e-002 -3.250929e-002 0.9995 17.7981 -8.5214)" fill="#3C2415" stroke="#000000" stroke-width="2" stroke-miterlimit="10" width="499" height="79"/>
	<path fill="none" stroke="#000000" stroke-miterlimit="10" d="M22,522.7c37.5,2.3,67.8,3.1,88.4,3.5c31.4,0.5,35.5-0.1,54.2,1.2
		c37.3,2.6,43.6,6.9,74.6,7.8c27.3,0.8,24.1-2.5,55.5-2.2c37.2,0.4,38.4,5,74.9,4.8c26.3-0.1,54.6-2.3,54.6-2.3
		c19.5-1.5,24.7-2.7,37.7-2.1c12.4,0.6,19.2,2.2,35.6,2.7c9.9,0.3,18,0,23.4-0.3"/>
	<path fill="none" stroke="#000000" stroke-miterlimit="10" d="M21,552c13.9-2.8,25.8-3.7,34.7-3.8c4.8-0.1,26.3-0.3,52.7,5.5
		c12.6,2.8,20.8,5.7,31.8,3.3c4.3-0.9,16.3-4.2,16.5-4.3l0,0l0,0c8-1.1,19.9-2.4,34.4-2.4c22.7-0.9,25.7,3.4,53.7,5.6
		c32.3,2.6,32.4-2.7,69.4,0.2c1.1,0.1,14,1.5,39.8,4.2c36.3,3.8,36.1,3.8,36.8,3.9c31,1.4,38.6-4.2,67.8-1.4c0,0,0,0,19.6,2.1
		c9.9,1,19.9,2.1,29.8,3.1c13.3,1.4-1.7-0.2,11.6,1.2"/>
</g>
<g>
	
		<rect x="14.9" y="290.8" transform="matrix(0.9889 0.1489 -0.1489 0.9889 52.1134 -35.6863)" fill="#603913" stroke="#000000" stroke-width="2" stroke-miterlimit="10" width="499" height="79"/>
	<path fill="none" stroke="#000000" stroke-miterlimit="10" d="M19.5,281c37,6.6,66.9,11,87.3,13.8c31.1,4.2,35.3,4,53.7,7.5
		c36.8,7,42.5,12,73.2,16.5c27,4,24.3,0.3,55.4,4.3c36.9,4.7,37.6,9.4,73.8,13.5c26.1,3,54.5,4.1,54.5,4.1
		c19.5,0.8,24.9,0.2,37.7,2.3c12.2,2,18.8,4.5,35,6.9c9.8,1.4,17.8,2.1,23.3,2.5"/>
	<path fill="none" stroke="#000000" stroke-miterlimit="10" d="M15.2,310c14.1-1.2,26-0.6,34.9,0.2c4.8,0.5,26.1,2.7,51.7,11.6
		c12.2,4.3,19.9,8.1,31.2,7c4.4-0.4,16.7-2.3,16.9-2.3l0,0l0,0c8.1-0.2,20.1-0.1,34.5,1.6c22.7,1.8,25.1,6.3,52.7,11.9
		c31.8,6.4,32.5,1.1,68.9,8.3c1.1,0.2,13.7,3.1,39,8.8c35.6,8,35.4,8,36.1,8.1c30.7,5,38.9,0.3,67.5,6.5c0,0,0,0,19.2,4.3
		c9.8,2.2,19.5,4.4,29.3,6.6c13,2.9-1.6-0.4,11.4,2.6"/>
</g>
<circle fill="#939598" stroke="#000000" stroke-miterlimit="10" cx="477.9" cy="219.8" r="4.6"/>
<circle fill="#939598" stroke="#000000" stroke-miterlimit="10" cx="477.9" cy="347.3" r="4.6"/>
<circle fill="#939598" stroke="#000000" stroke-miterlimit="10" cx="477.9" cy="527.3" r="4.6"/>
<circle fill="#939598" stroke="#000000" stroke-miterlimit="10" cx="480.9" cy="569.8" r="4.6"/>
<circle fill="#939598" stroke="#000000" stroke-miterlimit="10" cx="65.9" cy="222.1" r="4.6"/>
<circle fill="#939598" stroke="#000000" stroke-miterlimit="10" cx="68.9" cy="276.5" r="4.6"/>
<circle fill="#939598" stroke="#000000" stroke-miterlimit="10" cx="62.9" cy="322.4" r="4.6"/>
<circle fill="#939598" stroke="#000000" stroke-miterlimit="10" cx="65.9" cy="512.6" r="4.6"/>
<circle fill="#939598" stroke="#000000" stroke-miterlimit="10" cx="68.9" cy="558.6" r="4.6"/>
</svg>
